{
  "@context": [
    "https://www.w3.org/ns/credentials/v2",
    "https://w3id.org/gaia-x/development#"
  ],
  "id": "https://example.org/participant.json",
  "type": [
    "VerifiableCredential",
    "gx:LegalParticipant"
  ],
  "issuer": "did:web:example.org",
  "validFrom": "2024-01-01T19:23:24Z",
  "validUntil": "2100-01-01T19:23:24Z",
  "credentialSubject": {
    "id": "https://example.org/participant.json#cs",
    "type": "gx:LegalParticipant",
    "gx:legalName": "Example Ltd.",
    "gx:headquarterAddress": {
      "gx:countrySubdivisionCode": "FR-HDF"
    },
    "gx:legalAddress": {
      "gx:countrySubdivisionCode": "FR-HDF"
    },
    "gx:legalRegistrationNumber": {
      "id": "https://example.org/lrn.json#cs"
    }
  }
}